%YAML 1.1
%TAG !u! tag:unity3d.com,2011:
--- !u!114 &11400000
MonoBehaviour:
  m_ObjectHideFlags: 0
  m_CorrespondingSourceObject: {fileID: 0}
  m_PrefabInstance: {fileID: 0}
  m_PrefabAsset: {fileID: 0}
  m_GameObject: {fileID: 0}
  m_Enabled: 1
  m_EditorHideFlags: 0
  m_Script: {fileID: 11500000, guid: 1ca0f8ffa3ca9404fa930786d4c37307, type: 3}
  m_Name: DMG
  m_EditorClassIdentifier: 
  name: Damage
  icon: {fileID: 21300000, guid: 384dc0600654c244683aa7b456476934, type: 3}
  isDefaultItem: 0
